%YAML 1.1
%TAG !u! tag:unity3d.com,2011:
--- !u!29 &1
OcclusionCullingSettings:
  m_ObjectHideFlags: 0
  serializedVersion: 2
  m_OcclusionBakeSettings:
    smallestOccluder: 5
    smallestHole: 0.25
    backfaceThreshold: 100
  m_SceneGUID: 00000000000000000000000000000000
  m_OcclusionCullingData: {fileID: 0}
--- !u!104 &2
RenderSettings:
  m_ObjectHideFlags: 0
  serializedVersion: 9
  m_Fog: 0
  m_FogColor: {r: 0.5, g: 0.5, b: 0.5, a: 1}
  m_FogMode: 3
  m_FogDensity: 0.01
  m_LinearFogStart: 0
  m_LinearFogEnd: 300
  m_AmbientSkyColor: {r: 0.212, g: 0.227, b: 0.259, a: 1}
  m_AmbientEquatorColor: {r: 0.114, g: 0.125, b: 0.133, a: 1}
  m_AmbientGroundColor: {r: 0.047, g: 0.043, b: 0.035, a: 1}
  m_AmbientIntensity: 1
  m_AmbientMode: 0
  m_SubtractiveShadowColor: {r: 0.42, g: 0.478, b: 0.627, a: 1}
  m_SkyboxMaterial: {fileID: 10304, guid: 0000000000000000f000000000000000, type: 0}
  m_HaloStrength: 0.5
  m_FlareStrength: 1
  m_FlareFadeSpeed: 3
  m_HaloTexture: {fileID: 0}
  m_SpotCookie: {fileID: 10001, guid: 0000000000000000e000000000000000, type: 0}
  m_DefaultReflectionMode: 0
  m_DefaultReflectionResolution: 128
  m_ReflectionBounces: 1
  m_ReflectionIntensity: 1
  m_CustomReflection: {fileID: 0}
  m_Sun: {fileID: 0}
  m_IndirectSpecularColor: {r: 0, g: 0, b: 0, a: 1}
  m_UseRadianceAmbientProbe: 0
--- !u!157 &4
LightmapSettings:
  m_ObjectHideFlags: 0
  serializedVersion: 12
  m_GIWorkflowMode: 0
  m_GISettings:
    serializedVersion: 2
    m_BounceScale: 1
    m_IndirectOutputScale: 1
    m_AlbedoBoost: 1
    m_EnvironmentLightingMode: 0
    m_EnableBakedLightmaps: 1
    m_EnableRealtimeLightmaps: 1
  m_LightmapEditorSettings:
    serializedVersion: 12
    m_Resolution: 2
    m_BakeResolution: 40
    m_AtlasSize: 1024
    m_AO: 0
    m_AOMaxDistance: 1
    m_CompAOExponent: 0
    m_CompAOExponentDirect: 0
    m_ExtractAmbientOcclusion: 0
    m_Padding: 2
    m_LightmapParameters: {fileID: 0}
    m_LightmapsBakeMode: 1
    m_TextureCompression: 1
    m_FinalGather: 0
    m_FinalGatherFiltering: 1
    m_FinalGatherRayCount: 1024
    m_ReflectionCompression: 2
    m_MixedBakeMode: 1
    m_BakeBackend: 0
    m_PVRSampling: 1
    m_PVRDirectSampleCount: 32
    m_PVRSampleCount: 512
    m_PVRBounces: 2
    m_PVREnvironmentSampleCount: 512
    m_PVREnvironmentReferencePointCount: 2048
    m_PVRFilteringMode: 0
    m_PVRDenoiserTypeDirect: 0
    m_PVRDenoiserTypeIndirect: 0
    m_PVRDenoiserTypeAO: 0
    m_PVRFilterTypeDirect: 0
    m_PVRFilterTypeIndirect: 0
    m_PVRFilterTypeAO: 0
    m_PVREnvironmentMIS: 0
    m_PVRCulling: 1
    m_PVRFilteringGaussRadiusDirect: 1
    m_PVRFilteringGaussRadiusIndirect: 5
    m_PVRFilteringGaussRadiusAO: 2
    m_PVRFilteringAtrousPositionSigmaDirect: 0.5
    m_PVRFilteringAtrousPositionSigmaIndirect: 2
    m_PVRFilteringAtrousPositionSigmaAO: 1
    m_ExportTrainingData: 0
    m_TrainingDataDestination: TrainingData
    m_LightProbeSampleCountMultiplier: 4
  m_LightingDataAsset: {fileID: 0}
  m_LightingSettings: {fileID: 4890085278179872738, guid: 689c8a21053aaf643b040aa2e7c51897, type: 2}
--- !u!196 &5
NavMeshSettings:
  serializedVersion: 2
  m_ObjectHideFlags: 0
  m_BuildSettings:
    serializedVersion: 2
    agentTypeID: 0
    agentRadius: 0.5
    agentHeight: 2
    agentSlope: 45
    agentClimb: 0.4
    ledgeDropHeight: 0
    maxJumpAcrossDistance: 0
    minRegionArea: 2
    manualCellSize: 0
    cellSize: 0.16666667
    manualTileSize: 0
    tileSize: 256
    accuratePlacement: 0
    maxJobWorkers: 0
    preserveTilesOutsideBounds: 0
    debug:
      m_Flags: 0
  m_NavMeshData: {fileID: 0}
--- !u!1001 &860036912
PrefabInstance:
  m_ObjectHideFlags: 0
  serializedVersion: 2
  m_Modification:
    m_TransformParent: {fileID: 0}
    m_Modifications:
    - target: {fileID: 427224, guid: 402d1f5379b146b4191d956e3deeeebc, type: 3}
      propertyPath: m_RootOrder
      value: 2
      objectReference: {fileID: 0}
    - target: {fileID: 427224, guid: 402d1f5379b146b4191d956e3deeeebc, type: 3}
      propertyPath: m_LocalPosition.x
      value: -2.34801769
      objectReference: {fileID: 0}
    - target: {fileID: 427224, guid: 402d1f5379b146b4191d956e3deeeebc, type: 3}
      propertyPath: m_LocalPosition.y
      value: 0
      objectReference: {fileID: 0}
    - target: {fileID: 427224, guid: 402d1f5379b146b4191d956e3deeeebc, type: 3}
      propertyPath: m_LocalPosition.z
      value: -3.53826332
      objectReference: {fileID: 0}
    - target: {fileID: 427224, guid: 402d1f5379b146b4191d956e3deeeebc, type: 3}
      propertyPath: m_LocalRotation.w
      value: 1
      objectReference: {fileID: 0}
    - target: {fileID: 427224, guid: 402d1f5379b146b4191d956e3deeeebc, type: 3}
      propertyPath: m_LocalRotation.x
      value: 0
      objectReference: {fileID: 0}
    - target: {fileID: 427224, guid: 402d1f5379b146b4191d956e3deeeebc, type: 3}
      propertyPath: m_LocalRotation.y
      value: 0
      objectReference: {fileID: 0}
    - target: {fileID: 427224, guid: 402d1f5379b146b4191d956e3deeeebc, type: 3}
      propertyPath: m_LocalRotation.z
      value: 0
      objectReference: {fileID: 0}
    m_RemovedComponents: []
  m_SourcePrefab: {fileID: 100100000, guid: 402d1f5379b146b4191d956e3deeeebc, type: 3}
--- !u!1001 &919722798
PrefabInstance:
  m_ObjectHideFlags: 0
  serializedVersion: 2
  m_Modification:
    m_TransformParent: {fileID: 0}
    m_Modifications:
    - target: {fileID: 400546, guid: 4a7f6018722cca94db859ebaea055a29, type: 3}
      propertyPath: m_RootOrder
      value: 3
      objectReference: {fileID: 0}
    - target: {fileID: 400546, guid: 4a7f6018722cca94db859ebaea055a29, type: 3}
      propertyPath: m_LocalPosition.x
      value: 14.8500004
      objectReference: {fileID: 0}
    - target: {fileID: 400546, guid: 4a7f6018722cca94db859ebaea055a29, type: 3}
      propertyPath: m_LocalPosition.y
      value: 0
      objectReference: {fileID: 0}
    - target: {fileID: 400546, guid: 4a7f6018722cca94db859ebaea055a29, type: 3}
      propertyPath: m_LocalPosition.z
      value: 0
      objectReference: {fileID: 0}
    - target: {fileID: 400546, guid: 4a7f6018722cca94db859ebaea055a29, type: 3}
      propertyPath: m_LocalRotation.w
      value: 1
      objectReference: {fileID: 0}
    - target: {fileID: 400546, guid: 4a7f6018722cca94db859ebaea055a29, type: 3}
      propertyPath: m_LocalRotation.x
      value: 2.18556941e-08
      objectReference: {fileID: 0}
    - target: {fileID: 400546, guid: 4a7f6018722cca94db859ebaea055a29, type: 3}
      propertyPath: m_LocalRotation.y
      value: 0
      objectReference: {fileID: 0}
    - target: {fileID: 400546, guid: 4a7f6018722cca94db859ebaea055a29, type: 3}
      propertyPath: m_LocalRotation.z
      value: -0
      objectReference: {fileID: 0}
    - target: {fileID: 400572, guid: 4a7f6018722cca94db859ebaea055a29, type: 3}
      propertyPath: m_LocalRotation.w
      value: .223081633
      objectReference: {fileID: 0}
    - target: {fileID: 400572, guid: 4a7f6018722cca94db859ebaea055a29, type: 3}
      propertyPath: m_LocalRotation.x
      value: .800095618
      objectReference: {fileID: 0}
    - target: {fileID: 400572, guid: 4a7f6018722cca94db859ebaea055a29, type: 3}
      propertyPath: m_LocalRotation.y
      value: -.356805801
      objectReference: {fileID: 0}
    - target: {fileID: 400572, guid: 4a7f6018722cca94db859ebaea055a29, type: 3}
      propertyPath: m_LocalRotation.z
      value: .427517503
      objectReference: {fileID: 0}
    - target: {fileID: 400674, guid: 4a7f6018722cca94db859ebaea055a29, type: 3}
      propertyPath: m_LocalRotation.w
      value: .570146263
      objectReference: {fileID: 0}
    - target: {fileID: 400674, guid: 4a7f6018722cca94db859ebaea055a29, type: 3}
      propertyPath: m_LocalRotation.x
      value: -.571620584
      objectReference: {fileID: 0}
    - target: {fileID: 400674, guid: 4a7f6018722cca94db859ebaea055a29, type: 3}
      propertyPath: m_LocalRotation.y
      value: .58886528
      objectReference: {fileID: 0}
    - target: {fileID: 400674, guid: 4a7f6018722cca94db859ebaea055a29, type: 3}
      propertyPath: m_LocalRotation.z
      value: -.0376963466
      objectReference: {fileID: 0}
    - target: {fileID: 400700, guid: 4a7f6018722cca94db859ebaea055a29, type: 3}
      propertyPath: m_LocalRotation.w
      value: -.126077116
      objectReference: {fileID: 0}
    - target: {fileID: 400700, guid: 4a7f6018722cca94db859ebaea055a29, type: 3}
      propertyPath: m_LocalRotation.x
      value: .798808396
      objectReference: {fileID: 0}
    - target: {fileID: 400700, guid: 4a7f6018722cca94db859ebaea055a29, type: 3}
      propertyPath: m_LocalRotation.y
      value: .214649692
      objectReference: {fileID: 0}
    - target: {fileID: 400700, guid: 4a7f6018722cca94db859ebaea055a29, type: 3}
      propertyPath: m_LocalRotation.z
      value: .54766345
      objectReference: {fileID: 0}
    - target: {fileID: 400906, guid: 4a7f6018722cca94db859ebaea055a29, type: 3}
      propertyPath: m_LocalRotation.w
      value: -.220668182
      objectReference: {fileID: 0}
    - target: {fileID: 400906, guid: 4a7f6018722cca94db859ebaea055a29, type: 3}
      propertyPath: m_LocalRotation.x
      value: .553280234
      objectReference: {fileID: 0}
    - target: {fileID: 400906, guid: 4a7f6018722cca94db859ebaea055a29, type: 3}
      propertyPath: m_LocalRotation.y
      value: -.0274441186
      objectReference: {fileID: 0}
    - target: {fileID: 400906, guid: 4a7f6018722cca94db859ebaea055a29, type: 3}
      propertyPath: m_LocalRotation.z
      value: .802766085
      objectReference: {fileID: 0}
    - target: {fileID: 400928, guid: 4a7f6018722cca94db859ebaea055a29, type: 3}
      propertyPath: m_LocalRotation.w
      value: .565497637
      objectReference: {fileID: 0}
    - target: {fileID: 400928, guid: 4a7f6018722cca94db859ebaea055a29, type: 3}
      propertyPath: m_LocalRotation.x
      value: -.381675512
      objectReference: {fileID: 0}
    - target: {fileID: 400928, guid: 4a7f6018722cca94db859ebaea055a29, type: 3}
      propertyPath: m_LocalRotation.y
      value: .664676905
      objectReference: {fileID: 0}
    - target: {fileID: 400928, guid: 4a7f6018722cca94db859ebaea055a29, type: 3}
      propertyPath: m_LocalRotation.z
      value: .304534048
      objectReference: {fileID: 0}
    - target: {fileID: 400930, guid: 4a7f6018722cca94db859ebaea055a29, type: 3}
      propertyPath: m_LocalRotation.w
      value: -.378880829
      objectReference: {fileID: 0}
    - target: {fileID: 400930, guid: 4a7f6018722cca94db859ebaea055a29, type: 3}
      propertyPath: m_LocalRotation.x
      value: .562759697
      objectReference: {fileID: 0}
    - target: {fileID: 400930, guid: 4a7f6018722cca94db859ebaea055a29, type: 3}
      propertyPath: m_LocalRotation.y
      value: .263686121
      objectReference: {fileID: 0}
    - target: {fileID: 400930, guid: 4a7f6018722cca94db859ebaea055a29, type: 3}
      propertyPath: m_LocalRotation.z
      value: .685726345
      objectReference: {fileID: 0}
    - target: {fileID: 400968, guid: 4a7f6018722cca94db859ebaea055a29, type: 3}
      propertyPath: m_LocalRotation.w
      value: .470219851
      objectReference: {fileID: 0}
    - target: {fileID: 400968, guid: 4a7f6018722cca94db859ebaea055a29, type: 3}
      propertyPath: m_LocalRotation.x
      value: -.35474506
      objectReference: {fileID: 0}
    - target: {fileID: 400968, guid: 4a7f6018722cca94db859ebaea055a29, type: 3}
      propertyPath: m_LocalRotation.y
      value: .777156949
      objectReference: {fileID: 0}
    - target: {fileID: 400968, guid: 4a7f6018722cca94db859ebaea055a29, type: 3}
      propertyPath: m_LocalRotation.z
      value: .221531823
      objectReference: {fileID: 0}
    - target: {fileID: 401006, guid: 4a7f6018722cca94db859ebaea055a29, type: 3}
      propertyPath: m_LocalRotation.w
      value: -.0568461418
      objectReference: {fileID: 0}
    - target: {fileID: 401006, guid: 4a7f6018722cca94db859ebaea055a29, type: 3}
      propertyPath: m_LocalRotation.x
      value: -.303623885
      objectReference: {fileID: 0}
    - target: {fileID: 401006, guid: 4a7f6018722cca94db859ebaea055a29, type: 3}
      propertyPath: m_LocalRotation.y
      value: .729957879
      objectReference: {fileID: 0}
    - target: {fileID: 401006, guid: 4a7f6018722cca94db859ebaea055a29, type: 3}
      propertyPath: m_LocalRotation.z
      value: .609707057
      objectReference: {fileID: 0}
    - target: {fileID: 401036, guid: 4a7f6018722cca94db859ebaea055a29, type: 3}
      propertyPath: m_LocalRotation.w
      value: .647151411
      objectReference: {fileID: 0}
    - target: {fileID: 401036, guid: 4a7f6018722cca94db859ebaea055a29, type: 3}
      propertyPath: m_LocalRotation.x
      value: .525994599
      objectReference: {fileID: 0}
    - target: {fileID: 401036, guid: 4a7f6018722cca94db859ebaea055a29, type: 3}
      propertyPath: m_LocalRotation.y
      value: -.499716431
      objectReference: {fileID: 0}
    - target: {fileID: 401036, guid: 4a7f6018722cca94db859ebaea055a29, type: 3}
      propertyPath: m_LocalRotation.z
      value: .234111816
      objectReference: {fileID: 0}
    - target: {fileID: 401306, guid: 4a7f6018722cca94db859ebaea055a29, type: 3}
      propertyPath: m_LocalRotation.w
      value: .314553797
      objectReference: {fileID: 0}
    - target: {fileID: 401306, guid: 4a7f6018722cca94db859ebaea055a29, type: 3}
      propertyPath: m_LocalRotation.x
      value: -.564507842
      objectReference: {fileID: 0}
    - target: {fileID: 401306, guid: 4a7f6018722cca94db859ebaea055a29, type: 3}
      propertyPath: m_LocalRotation.y
      value: .742204309
      objectReference: {fileID: 0}
    - target: {fileID: 401306, guid: 4a7f6018722cca94db859ebaea055a29, type: 3}
      propertyPath: m_LocalRotation.z
      value: .177537948
      objectReference: {fileID: 0}
    - target: {fileID: 401328, guid: 4a7f6018722cca94db859ebaea055a29, type: 3}
      propertyPath: m_LocalRotation.w
      value: .525675654
      objectReference: {fileID: 0}
    - target: {fileID: 401328, guid: 4a7f6018722cca94db859ebaea055a29, type: 3}
      propertyPath: m_LocalRotation.x
      value: -.176359206
      objectReference: {fileID: 0}
    - target: {fileID: 401328, guid: 4a7f6018722cca94db859ebaea055a29, type: 3}
      propertyPath: m_LocalRotation.y
      value: .829351246
      objectReference: {fileID: 0}
    - target: {fileID: 401328, guid: 4a7f6018722cca94db859ebaea055a29, type: 3}
      propertyPath: m_LocalRotation.z
      value: .0688410774
      objectReference: {fileID: 0}
    - target: {fileID: 401470, guid: 4a7f6018722cca94db859ebaea055a29, type: 3}
      propertyPath: m_LocalRotation.w
      value: .340307444
      objectReference: {fileID: 0}
    - target: {fileID: 401470, guid: 4a7f6018722cca94db859ebaea055a29, type: 3}
      propertyPath: m_LocalRotation.x
      value: -.571529627
      objectReference: {fileID: 0}
    - target: {fileID: 401470, guid: 4a7f6018722cca94db859ebaea055a29, type: 3}
      propertyPath: m_LocalRotation.y
      value: -.37221536
      objectReference: {fileID: 0}
    - target: {fileID: 401470, guid: 4a7f6018722cca94db859ebaea055a29, type: 3}
      propertyPath: m_LocalRotation.z
      value: .647302568
      objectReference: {fileID: 0}
    - target: {fileID: 401510, guid: 4a7f6018722cca94db859ebaea055a29, type: 3}
      propertyPath: m_LocalRotation.w
      value: .426759541
      objectReference: {fileID: 0}
    - target: {fileID: 401510, guid: 4a7f6018722cca94db859ebaea055a29, type: 3}
      propertyPath: m_LocalRotation.x
      value: -.163575321
      objectReference: {fileID: 0}
    - target: {fileID: 401510, guid: 4a7f6018722cca94db859ebaea055a29, type: 3}
      propertyPath: m_LocalRotation.y
      value: -.507618129
      objectReference: {fileID: 0}
    - target: {fileID: 401510, guid: 4a7f6018722cca94db859ebaea055a29, type: 3}
      propertyPath: m_LocalRotation.z
      value: .730372071
      objectReference: {fileID: 0}
    - target: {fileID: 401680, guid: 4a7f6018722cca94db859ebaea055a29, type: 3}
      propertyPath: m_LocalRotation.w
      value: .560831308
      objectReference: {fileID: 0}
    - target: {fileID: 401680, guid: 4a7f6018722cca94db859ebaea055a29, type: 3}
      propertyPath: m_LocalRotation.x
      value: .654357076
      objectReference: {fileID: 0}
    - target: {fileID: 401680, guid: 4a7f6018722cca94db859ebaea055a29, type: 3}
      propertyPath: m_LocalRotation.y
      value: -.462278187
      objectReference: {fileID: 0}
    - target: {fileID: 401680, guid: 4a7f6018722cca94db859ebaea055a29, type: 3}
      propertyPath: m_LocalRotation.z
      value: -.208767995
      objectReference: {fileID: 0}
    - target: {fileID: 401728, guid: 4a7f6018722cca94db859ebaea055a29, type: 3}
      propertyPath: m_LocalRotation.w
      value: .604926348
      objectReference: {fileID: 0}
    - target: {fileID: 401728, guid: 4a7f6018722cca94db859ebaea055a29, type: 3}
      propertyPath: m_LocalRotation.x
      value: -.703671098
      objectReference: {fileID: 0}
    - target: {fileID: 401728, guid: 4a7f6018722cca94db859ebaea055a29, type: 3}
      propertyPath: m_LocalRotation.y
      value: -.209025562
      objectReference: {fileID: 0}
    - target: {fileID: 401728, guid: 4a7f6018722cca94db859ebaea055a29, type: 3}
      propertyPath: m_LocalRotation.z
      value: -.308576703
      objectReference: {fileID: 0}
    - target: {fileID: 401780, guid: 4a7f6018722cca94db859ebaea055a29, type: 3}
      propertyPath: m_LocalRotation.w
      value: -.12047074
      objectReference: {fileID: 0}
    - target: {fileID: 401780, guid: 4a7f6018722cca94db859ebaea055a29, type: 3}
      propertyPath: m_LocalRotation.x
      value: .17007336
      objectReference: {fileID: 0}
    - target: {fileID: 401780, guid: 4a7f6018722cca94db859ebaea055a29, type: 3}
      propertyPath: m_LocalRotation.y
      value: .828787565
      objectReference: {fileID: 0}
    - target: {fileID: 401780, guid: 4a7f6018722cca94db859ebaea055a29, type: 3}
      propertyPath: m_LocalRotation.z
      value: .51930058
      objectReference: {fileID: 0}
    - target: {fileID: 401810, guid: 4a7f6018722cca94db859ebaea055a29, type: 3}
      propertyPath: m_LocalRotation.w
      value: -.299059927
      objectReference: {fileID: 0}
    - target: {fileID: 401810, guid: 4a7f6018722cca94db859ebaea055a29, type: 3}
      propertyPath: m_LocalRotation.x
      value: .656576574
      objectReference: {fileID: 0}
    - target: {fileID: 401810, guid: 4a7f6018722cca94db859ebaea055a29, type: 3}
      propertyPath: m_LocalRotation.y
      value: -.638700664
      objectReference: {fileID: 0}
    - target: {fileID: 401810, guid: 4a7f6018722cca94db859ebaea055a29, type: 3}
      propertyPath: m_LocalRotation.z
      value: -.267454654
      objectReference: {fileID: 0}
    m_RemovedComponents: []
  m_SourcePrefab: {fileID: 100100000, guid: 4a7f6018722cca94db859ebaea055a29, type: 3}
--- !u!1 &1322245647
GameObject:
  m_ObjectHideFlags: 0
  m_CorrespondingSourceObject: {fileID: 0}
  m_PrefabInstance: {fileID: 0}
  m_PrefabAsset: {fileID: 0}
  serializedVersion: 6
  m_Component:
  - component: {fileID: 1322245649}
  - component: {fileID: 1322245648}
  m_Layer: 0
  m_Name: Directional Light
  m_TagString: Untagged
  m_Icon: {fileID: 0}
  m_NavMeshLayer: 0
  m_StaticEditorFlags: 0
  m_IsActive: 1
--- !u!108 &1322245648
Light:
  m_ObjectHideFlags: 0
  m_CorrespondingSourceObject: {fileID: 0}
  m_PrefabInstance: {fileID: 0}
  m_PrefabAsset: {fileID: 0}
  m_GameObject: {fileID: 1322245647}
  m_Enabled: 1
  serializedVersion: 10
  m_Type: 1
  m_Shape: 0
  m_Color: {r: 1, g: 0.95686275, b: 0.8392157, a: 1}
  m_Intensity: 1
  m_Range: 10
  m_SpotAngle: 30
  m_InnerSpotAngle: 21.80208
  m_CookieSize: 10
  m_Shadows:
    m_Type: 2
    m_Resolution: -1
    m_CustomResolution: -1
    m_Strength: 1
    m_Bias: 0.05
    m_NormalBias: 0.4
    m_NearPlane: 0.2
    m_CullingMatrixOverride:
      e00: 1
      e01: 0
      e02: 0
      e03: 0
      e10: 0
      e11: 1
      e12: 0
      e13: 0
      e20: 0
      e21: 0
      e22: 1
      e23: 0
      e30: 0
      e31: 0
      e32: 0
      e33: 1
    m_UseCullingMatrixOverride: 0
  m_Cookie: {fileID: 0}
  m_DrawHalo: 0
  m_Flare: {fileID: 0}
  m_RenderMode: 0
  m_CullingMask:
    serializedVersion: 2
    m_Bits: 4294967295
  m_RenderingLayerMask: 1
  m_Lightmapping: 4
  m_LightShadowCasterMode: 0
  m_AreaSize: {x: 1, y: 1}
  m_BounceIntensity: 1
  m_ColorTemperature: 6570
  m_UseColorTemperature: 0
  m_BoundingSphereOverride: {x: 0, y: 0, z: 0, w: 0}
  m_UseBoundingSphereOverride: 0
  m_ShadowRadius: 0
  m_ShadowAngle: 0
--- !u!4 &1322245649
Transform:
  m_ObjectHideFlags: 0
  m_CorrespondingSourceObject: {fileID: 0}
  m_PrefabInstance: {fileID: 0}
  m_PrefabAsset: {fileID: 0}
  m_GameObject: {fileID: 1322245647}
  m_LocalRotation: {x: 0.40821794, y: -0.23456973, z: 0.109381676, w: 0.87542605}
  m_LocalPosition: {x: 0, y: 3, z: 0}
  m_LocalScale: {x: 1, y: 1, z: 1}
  m_Children: []
  m_Father: {fileID: 0}
  m_RootOrder: 1
  m_LocalEulerAnglesHint: {x: 0, y: 0, z: 0}
--- !u!1 &1996448851
GameObject:
  m_ObjectHideFlags: 0
  m_CorrespondingSourceObject: {fileID: 0}
  m_PrefabInstance: {fileID: 0}
  m_PrefabAsset: {fileID: 0}
  serializedVersion: 6
  m_Component:
  - component: {fileID: 1996448856}
  - component: {fileID: 1996448855}
  - component: {fileID: 1996448853}
  - component: {fileID: 1996448852}
  m_Layer: 0
  m_Name: Main Camera
  m_TagString: MainCamera
  m_Icon: {fileID: 0}
  m_NavMeshLayer: 0
  m_StaticEditorFlags: 0
  m_IsActive: 1
--- !u!81 &1996448852
AudioListener:
  m_ObjectHideFlags: 0
  m_CorrespondingSourceObject: {fileID: 0}
  m_PrefabInstance: {fileID: 0}
  m_PrefabAsset: {fileID: 0}
  m_GameObject: {fileID: 1996448851}
  m_Enabled: 1
--- !u!124 &1996448853
Behaviour:
  m_ObjectHideFlags: 0
  m_CorrespondingSourceObject: {fileID: 0}
  m_PrefabInstance: {fileID: 0}
  m_PrefabAsset: {fileID: 0}
  m_GameObject: {fileID: 1996448851}
  m_Enabled: 1
--- !u!20 &1996448855
Camera:
  m_ObjectHideFlags: 0
  m_CorrespondingSourceObject: {fileID: 0}
  m_PrefabInstance: {fileID: 0}
  m_PrefabAsset: {fileID: 0}
  m_GameObject: {fileID: 1996448851}
  m_Enabled: 1
  serializedVersion: 2
  m_ClearFlags: 1
  m_BackGroundColor: {r: 0.19215687, g: 0.3019608, b: 0.4745098, a: 0.019607844}
  m_projectionMatrixMode: 1
  m_GateFitMode: 2
  m_FOVAxisMode: 0
  m_SensorSize: {x: 36, y: 24}
  m_LensShift: {x: 0, y: 0}
  m_FocalLength: 50
  m_NormalizedViewPortRect:
    serializedVersion: 2
    x: 0
    y: 0
    width: 1
    height: 1
  near clip plane: 0.3
  far clip plane: 1000
  field of view: 60
  orthographic: 0
  orthographic size: 5
  m_Depth: -1
  m_CullingMask:
    serializedVersion: 2
    m_Bits: 4294967295
  m_RenderingPath: -1
  m_TargetTexture: {fileID: 0}
  m_TargetDisplay: 0
  m_TargetEye: 3
  m_HDR: 0
  m_AllowMSAA: 1
  m_AllowDynamicResolution: 0
  m_ForceIntoRT: 0
  m_OcclusionCulling: 1
  m_StereoConvergence: 10
  m_StereoSeparation: 0.022
--- !u!4 &1996448856
Transform:
  m_ObjectHideFlags: 0
  m_CorrespondingSourceObject: {fileID: 0}
  m_PrefabInstance: {fileID: 0}
  m_PrefabAsset: {fileID: 0}
  m_GameObject: {fileID: 1996448851}
  m_LocalRotation: {x: 0, y: 0, z: 0, w: 1}
  m_LocalPosition: {x: 0, y: 1, z: -10}
  m_LocalScale: {x: 1, y: 1, z: 1}
  m_Children: []
  m_Father: {fileID: 0}
  m_RootOrder: 0
  m_LocalEulerAnglesHint: {x: 0, y: 0, z: 0}
--- !u!1 &2127836377
GameObject:
  m_ObjectHideFlags: 0
  m_CorrespondingSourceObject: {fileID: 0}
  m_PrefabInstance: {fileID: 0}
  m_PrefabAsset: {fileID: 0}
  serializedVersion: 6
  m_Component:
  - component: {fileID: 2127836379}
  - component: {fileID: 2127836378}
  m_Layer: 0
  m_Name: WindZone
  m_TagString: Untagged
  m_Icon: {fileID: 0}
  m_NavMeshLayer: 0
  m_StaticEditorFlags: 0
  m_IsActive: 1
--- !u!182 &2127836378
WindZone:
  m_ObjectHideFlags: 0
  m_CorrespondingSourceObject: {fileID: 0}
  m_PrefabInstance: {fileID: 0}
  m_PrefabAsset: {fileID: 0}
  m_GameObject: {fileID: 2127836377}
  m_Enabled: 1
  m_Mode: 0
  m_Radius: 20
  m_WindMain: 1
  m_WindTurbulence: 1
  m_WindPulseMagnitude: 0.5
  m_WindPulseFrequency: 0.01
--- !u!4 &2127836379
Transform:
  m_ObjectHideFlags: 0
  m_CorrespondingSourceObject: {fileID: 0}
  m_PrefabInstance: {fileID: 0}
  m_PrefabAsset: {fileID: 0}
  m_GameObject: {fileID: 2127836377}
  m_LocalRotation: {x: 0, y: 0, z: 0, w: 1}
  m_LocalPosition: {x: 0, y: 0, z: 0}
  m_LocalScale: {x: 1, y: 1, z: 1}
  m_Children: []
  m_Father: {fileID: 0}
  m_RootOrder: 4
  m_LocalEulerAnglesHint: {x: 0, y: 0, z: 0}
